CH5/CH5-2/simulation/qsim/Full_subtractor_S.msim.vcd
$comment
	File created using the following command:
		vcd file Full_subtractor_S.msim.vcd -direction
$end
$date
	Mon Aug 26 18:14:42 2019
$end
$version
	ModelSim Version 10.3d
$end
$timescale
	1ps
$end

$scope module Full_subtractor_S_vlg_vec_tst $end
$var reg 1 ! A $end
$var reg 1 " B $end
$var reg 1 # Bi $end
$var wire 1 $ Bo $end
$var wire 1 % Do $end
$var wire 1 & sampler $end

$scope module i1 $end
$var wire 1 ' gnd $end
$var wire 1 ( vcc $end
$var wire 1 ) unknown $end
$var tri1 1 * devclrn $end
$var tri1 1 + devpor $end
$var tri1 1 , devoe $end
$var wire 1 - ~QUARTUS_CREATED_GND~I_combout $end
$var wire 1 . Bi~input_o $end
$var wire 1 / A~input_o $end
$var wire 1 0 B~input_o $end
$var wire 1 1 inst1|inst~combout $end
$var wire 1 2 inst2~combout $end
$upscope $end
$upscope $end
$enddefinitions $end
#0
$dumpvars
0!
0"
0#
0$
0%
x&
0'
1(
x)
1*
1+
1,
0-
0.
0/
00
01
02
$end
#1000000
1#
1.
0&
12
11
1%
1$
#2000000
1"
0#
10
0.
1&
#3000000
1#
1.
0&
01
0%
#4000000
1!
0"
0#
1/
00
0.
1&
02
11
1%
0$
#5000000
1#
1.
0&
01
0%
#6000000
1"
0#
10
0.
1&
#7000000
1#
1.
0&
12
11
1%
1$
