Digital_Logic_Practice/CH5/CH5-2/simulation/qsim/four_bit_add_sub.msim.vcd
$comment
	File created using the following command:
		vcd file four_bit_add_sub.msim.vcd -direction
$end
$date
	Mon Aug 26 22:08:42 2019
$end
$version
	ModelSim Version 10.3d
$end
$timescale
	1ps
$end

$scope module four_bit_add_sub_vlg_vec_tst $end
$var reg 1 ! A0 $end
$var reg 1 " A1 $end
$var reg 1 # A2 $end
$var reg 1 $ A3 $end
$var reg 1 % B0 $end
$var reg 1 & B1 $end
$var reg 1 ' B2 $end
$var reg 1 ( B3 $end
$var reg 1 ) SUB $end
$var wire 1 * C3 $end
$var wire 1 + S0 $end
$var wire 1 , S1 $end
$var wire 1 - S2 $end
$var wire 1 . S3 $end
$var wire 1 / sampler $end

$scope module i1 $end
$var wire 1 0 gnd $end
$var wire 1 1 vcc $end
$var wire 1 2 unknown $end
$var tri1 1 3 devclrn $end
$var tri1 1 4 devpor $end
$var tri1 1 5 devoe $end
$var wire 1 6 ~QUARTUS_CREATED_GND~I_combout $end
$var wire 1 7 B3~input_o $end
$var wire 1 8 SUB~input_o $end
$var wire 1 9 B2~input_o $end
$var wire 1 : A2~input_o $end
$var wire 1 ; A0~input_o $end
$var wire 1 < A1~input_o $end
$var wire 1 = B0~input_o $end
$var wire 1 > B1~input_o $end
$var wire 1 ? inst2|inst2~combout $end
$var wire 1 @ A3~input_o $end
$var wire 1 A inst|inst2~combout $end
$var wire 1 B inst|inst1|inst~combout $end
$var wire 1 C inst1|inst1|inst~combout $end
$var wire 1 D inst2|inst1|inst~combout $end
$var wire 1 E inst3|inst|inst~combout $end
$upscope $end
$upscope $end
$enddefinitions $end
#0
$dumpvars
0!
0"
0#
0$
0%
0&
0'
0(
0)
0*
0+
0,
0-
0.
x/
00
11
x2
13
14
15
06
07
08
09
0:
0;
0<
0=
0>
0?
0@
0A
0B
0C
0D
0E
$end
#1000000
1$
1(
1@
17
0/
1A
1*
#2000000
1#
1'
0$
0(
1:
19
0@
07
1/
1B
0A
0*
1.
#3000000
1$
1(
1@
17
0/
1A
1*
#4000000
1"
1&
0#
0'
0$
0(
1<
1>
0:
09
0@
07
1/
1?
0B
0A
0*
0.
1C
1-
#5000000
1$
1(
1@
17
0/
1A
1*
#6000000
1#
1'
0$
0(
1:
19
0@
07
1/
1B
0A
0*
1.
#7000000
1$
1(
1@
17
0/
1A
1*
#8000000
1)
1!
1%
0"
0&
0#
0'
0$
0(
18
1;
1=
0<
0>
0:
09
0@
07
1/
0B
0C
0-
0.
#9000000
1$
1(
1@
17
0/
#10000000
1#
1'
0$
0(
1:
19
0@
07
1/
#11000000
1$
1(
1@
17
0/
#12000000
1"
1&
0#
0'
0$
0(
1<
1>
0:
09
0@
07
1/
#13000000
1$
1(
1@
17
0/
#14000000
1#
1'
0$
0(
1:
19
0@
07
1/
#15000000
1$
1(
1@
17
0/
