Digital_Logic_Practice/CH5/CH5-2/simulation/qsim/Half_subtractor.msim.vcd
$comment
	File created using the following command:
		vcd file Half_subtractor.msim.vcd -direction
$end
$date
	Mon Aug 26 17:04:37 2019
$end
$version
	ModelSim Version 10.3d
$end
$timescale
	1ps
$end

$scope module Half_subtractor_vlg_vec_tst $end
$var reg 1 ! A $end
$var reg 1 " B $end
$var wire 1 # Bo $end
$var wire 1 $ Do $end
$var wire 1 % sampler $end

$scope module i1 $end
$var wire 1 & gnd $end
$var wire 1 ' vcc $end
$var wire 1 ( unknown $end
$var tri1 1 ) devclrn $end
$var tri1 1 * devpor $end
$var tri1 1 + devoe $end
$var wire 1 , ~QUARTUS_CREATED_GND~I_combout $end
$var wire 1 - A~input_o $end
$var wire 1 . B~input_o $end
$var wire 1 / inst~combout $end
$var wire 1 0 inst2~combout $end
$upscope $end
$upscope $end
$enddefinitions $end
#0
$dumpvars
0!
0"
0#
0$
x%
0&
1'
x(
1)
1*
1+
0,
0-
0.
0/
00
$end
#1000000
1"
1.
0%
10
1/
1$
1#
#2000000
1!
0"
1-
0.
1%
00
0#
#3000000
1"
1.
0%
0/
0$
#4000000
0!
0"
0-
0.
1%
#5000000
1"
1.
0%
10
1/
1$
1#
#6000000
1!
0"
1-
0.
1%
00
0#
#7000000
1"
1.
0%
0/
0$
