CH6/CH6-1/simulation/qsim/BCD_to_decimal_decoder.msim.vcd
$comment
	File created using the following command:
		vcd file BCD_to_decimal_decoder.msim.vcd -direction
$end
$date
	Thu Oct 17 23:24:17 2019
$end
$version
	ModelSim Version 10.1d
$end
$timescale
	1ps
$end
$scope module BCD_to_decimal_decoder_vlg_vec_tst $end
$var reg 1 ! A $end
$var reg 1 " B $end
$var reg 1 # C $end
$var reg 1 $ D $end
$var wire 1 % Y0 $end
$var wire 1 & Y1 $end
$var wire 1 ' Y2 $end
$var wire 1 ( Y3 $end
$var wire 1 ) Y4 $end
$var wire 1 * Y5 $end
$var wire 1 + Y6 $end
$var wire 1 , Y7 $end
$var wire 1 - Y8 $end
$var wire 1 . Y9 $end
$var wire 1 / sampler $end
$scope module i1 $end
$var wire 1 0 gnd $end
$var wire 1 1 vcc $end
$var wire 1 2 unknown $end
$var tri1 1 3 devclrn $end
$var tri1 1 4 devpor $end
$var tri1 1 5 devoe $end
$var wire 1 6 Y0~output_o $end
$var wire 1 7 Y1~output_o $end
$var wire 1 8 Y2~output_o $end
$var wire 1 9 Y3~output_o $end
$var wire 1 : Y4~output_o $end
$var wire 1 ; Y5~output_o $end
$var wire 1 < Y6~output_o $end
$var wire 1 = Y7~output_o $end
$var wire 1 > Y8~output_o $end
$var wire 1 ? Y9~output_o $end
$var wire 1 @ C~input_o $end
$var wire 1 A D~input_o $end
$var wire 1 B A~input_o $end
$var wire 1 C B~input_o $end
$var wire 1 D inst~combout $end
$var wire 1 E inst1~combout $end
$var wire 1 F inst2~combout $end
$var wire 1 G inst3~combout $end
$var wire 1 H inst4~combout $end
$var wire 1 I inst5~combout $end
$var wire 1 J inst6~combout $end
$var wire 1 K inst7~combout $end
$var wire 1 L inst8~combout $end
$var wire 1 M inst9~combout $end
$upscope $end
$upscope $end
$enddefinitions $end
#0
$dumpvars
0!
0"
0#
0$
1%
0&
0'
0(
0)
0*
0+
0,
0-
0.
x/
00
11
x2
13
14
15
16
07
08
09
0:
0;
0<
0=
0>
0?
0@
0A
0B
0C
1D
0E
0F
0G
0H
0I
0J
0K
0L
0M
$end
#1000000
1!
1B
0/
1E
0D
17
06
1&
0%
#2000000
1"
0!
1C
0B
1/
1F
0E
18
07
1'
0&
#3000000
1!
1B
0/
1G
0F
19
08
1(
0'
#4000000
1#
0"
0!
1@
0C
0B
1/
1H
0G
1:
09
1)
0(
#5000000
1!
1B
0/
1I
0H
1;
0:
1*
0)
#6000000
1"
0!
1C
0B
1/
1J
0I
1<
0;
1+
0*
#7000000
1!
1B
0/
1K
0J
1=
0<
1,
0+
#8000000
1$
0#
0"
0!
1A
0@
0C
0B
1/
1L
0K
1>
0=
1-
0,
#9000000
1!
1B
0/
1M
0L
1?
0>
1.
0-
