Digital_Logic_Practice/CH4/CH4-2/simulation/qsim/voting_circuit_1.msim.vcd
$comment
	File created using the following command:
		vcd file voting_circuit_1.msim.vcd -direction
$end
$date
	Mon Aug 12 12:22:48 2019
$end
$version
	ModelSim Version 10.3d
$end
$timescale
	1ps
$end

$scope module voting_circuit_1_vlg_vec_tst $end
$var reg 1 ! A $end
$var reg 1 " B $end
$var reg 1 # C $end
$var wire 1 $ Y $end
$var wire 1 % sampler $end

$scope module i1 $end
$var wire 1 & gnd $end
$var wire 1 ' vcc $end
$var wire 1 ( unknown $end
$var tri1 1 ) devclrn $end
$var tri1 1 * devpor $end
$var tri1 1 + devoe $end
$var wire 1 , ~QUARTUS_CREATED_GND~I_combout $end
$var wire 1 - B~input_o $end
$var wire 1 . A~input_o $end
$var wire 1 / C~input_o $end
$var wire 1 0 inst7~0_combout $end
$upscope $end
$upscope $end
$enddefinitions $end
#0
$dumpvars
0!
0"
0#
0$
x%
0&
1'
x(
1)
1*
1+
0,
0-
0.
0/
00
$end
#1000000
1#
1/
0%
#2000000
1"
0#
1-
0/
1%
#3000000
1#
1/
0%
10
1$
#4000000
1!
0"
0#
1.
0-
0/
1%
00
0$
#5000000
1#
1/
0%
10
1$
#6000000
1"
0#
1-
0/
1%
#7000000
1#
1/
0%
