CH4/CH4-3/simulation/qsim/voting_circuit_2.msim.vcd
$comment
	File created using the following command:
		vcd file voting_circuit_2.msim.vcd -direction
$end
$date
	Mon Aug 12 20:15:43 2019
$end
$version
	ModelSim Version 10.3d
$end
$timescale
	1ps
$end

$scope module voting_circuit_2_vlg_vec_tst $end
$var reg 1 ! A $end
$var reg 1 " B $end
$var reg 1 # C $end
$var wire 1 $ F1 $end
$var wire 1 % F2 $end
$var wire 1 & F3 $end
$var wire 1 ' sampler $end

$scope module i1 $end
$var wire 1 ( gnd $end
$var wire 1 ) vcc $end
$var wire 1 * unknown $end
$var tri1 1 + devclrn $end
$var tri1 1 , devpor $end
$var tri1 1 - devoe $end
$var wire 1 . ~QUARTUS_CREATED_GND~I_combout $end
$var wire 1 / B~input_o $end
$var wire 1 0 A~input_o $end
$var wire 1 1 C~input_o $end
$var wire 1 2 inst15~0_combout $end
$var wire 1 3 inst16~0_combout $end
$var wire 1 4 inst10~0_combout $end
$upscope $end
$upscope $end
$enddefinitions $end
#0
$dumpvars
0!
0"
0#
0$
1%
0&
x'
0(
1)
x*
1+
1,
1-
0.
0/
00
01
12
03
04
$end
#1000000
1#
11
0'
#2000000
1"
0#
1/
01
1'
#3000000
1#
11
0'
13
14
1&
0%
#4000000
1!
0"
0#
10
0/
01
1'
#5000000
1#
11
0'
02
04
0&
1$
#6000000
1"
0#
1/
01
1'
#7000000
1#
11
0'
